<svg width="16" height="10" viewBox="0 0 16 10" fill="none" xmlns="http://www.w3.org/2000/svg">
<path d="M15 1L8 8.53846L0.999999 0.999999" stroke="#0078FF" stroke-width="1.5" stroke-linecap="round" stroke-linejoin="round"/>
</svg>
