// Jest Snapshot v1, https://goo.gl/fbAQLP

exports[`<home-courses-designed-by-experts /> should render correctly 1`] = `
<rmito-section-stub
  maxwidth="1080"
  title="Courses designed by experts"
>
  <ul
    class="courses-designed-by-experts__industry-icons"
  >
    <li
      class="courses-designed-by-experts__industry-icon"
    >
      <rmito-image-stub
        alt="accenture"
        class="img-center"
        maxwidth="90"
        position="center center"
        size="cover"
        src="//assets.fakecdn.com/accenture"
      />
    </li>
    <li
      class="courses-designed-by-experts__industry-icon"
    >
      <rmito-image-stub
        alt="IBM"
        class="img-center"
        maxwidth="90"
        position="center center"
        size="cover"
        src="//assets.fakecdn.com/ibm"
      />
    </li>
    <li
      class="courses-designed-by-experts__industry-icon"
    >
      <rmito-image-stub
        alt="NAB"
        class="img-center"
        maxwidth="90"
        position="center center"
        size="cover"
        src="//assets.fakecdn.com/nab"
      />
    </li>
    <li
      class="courses-designed-by-experts__industry-icon"
    >
      <rmito-image-stub
        alt="salesforce"
        class="img-center"
        maxwidth="90"
        position="center center"
        size="cover"
        src="//assets.fakecdn.com/salesforce"
      />
    </li>
  </ul>
</rmito-section-stub>
`;
